{
    "workbench.colorTheme": "Mayukai Dark",
    "workbench.iconTheme": "ayu",
    "editor.fontFamily": "'JetBrainsMono Nerd Font', 'FiraCode Nerd Font', Consolas, 'Courier New', monospace",
    "editor.rulers": [
        {"column":   0, "color": "#5a5a5a80"}, // left boundary is 50% opaque
        {"column":   2, "color": "#5a5a5a20"}, // tab stops are 12.5% opaque
        {"column":   4, "color": "#5a5a5a20"},
        {"column":   6, "color": "#5a5a5a20"},
        {"column":   8, "color": "#5a5a5a20"},
        {"column":  10, "color": "#5a5a5a20"},
        {"column":  40, "color": "#5a5a5a20"}, // center line
        {"column":  79, "color": "#5a5a5a20"}, // right rule minus one
        {"column":  80, "color": "#5a5a5a80"}, // right rule
        {"column": 120, "color": "#5a5a5a40"}  // extra right rule
    ],   
    "git.enableSmartCommit": true,
    "git.autofetch": true,
    "editor.fontLigatures": true,
    "editor.renderWhitespace": "boundary",
    "editor.stickyScroll.enabled": true,
    "editor.fontSize": 16
}